{
  "endpoints": [
    {
      "id": "get-marks",
      "method": "POST",
      "path": "/api/v2/marks/",
      "summary": "Получение меток в области карты",
      "description": "Возвращает метки или кластеры меток в заданной видимой области карты. При zoomLevel < 12 возвращает кластеры, при >= 12 — отдельные метки. Фильтрация по времени начала событий.",
      "tags": ["Метки"],
      "requestBody": {
        "description": "Параметры области и фильтрации",
        "contentType": "json",
        "schema": [
          {
            "name": "screen",
            "type": "object",
            "required": true,
            "description": "Видимая область карты",
            "children": [
              {
                "name": "leftTop",
                "type": "object",
                "required": true,
                "description": "Левый верхний угол области",
                "children": [
                  { "name": "lon", "type": "number", "required": true, "description": "Долгота" },
                  { "name": "lat", "type": "number", "required": true, "description": "Широта" }
                ]
              },
              {
                "name": "center",
                "type": "object",
                "required": true,
                "description": "Центр области",
                "children": [
                  { "name": "lon", "type": "number", "required": true, "description": "Долгота" },
                  { "name": "lat", "type": "number", "required": true, "description": "Широта" }
                ]
              },
              {
                "name": "rightBottom",
                "type": "object",
                "required": true,
                "description": "Правый нижний угол области",
                "children": [
                  { "name": "lon", "type": "number", "required": true, "description": "Долгота" },
                  { "name": "lat", "type": "number", "required": true, "description": "Широта" }
                ]
              }
            ]
          },
          { "name": "zoomLevel", "type": "integer", "required": false, "description": "Уровень зума карты. По умолчанию 15. При < 12 возвращаются кластеры" },
          { "name": "startAt", "type": "string", "required": true, "description": "Начало временного диапазона (ISO 8601)" }
        ],
        "example": {
          "screen": {
            "leftTop": { "lon": 37.5, "lat": 55.8 },
            "center": { "lon": 37.6, "lat": 55.75 },
            "rightBottom": { "lon": 37.7, "lat": 55.7 }
          },
          "zoomLevel": 15,
          "startAt": "2026-04-25T00:00:00Z"
        }
      },
      "responses": [
        {
          "statusCode": 200,
          "description": "Список меток (при zoomLevel >= 12)",
          "schema": [
            { "name": "id", "type": "integer", "required": true, "description": "ID метки" },
            { "name": "markName", "type": "string", "required": true, "description": "Название метки" },
            { "name": "additionalInfo", "type": "string", "required": false, "description": "Дополнительное описание" },
            {
              "name": "category",
              "type": "object",
              "required": false,
              "description": "Категория метки",
              "children": [
                { "name": "id", "type": "integer", "required": true, "description": "ID категории" },
                { "name": "categoryName", "type": "string", "required": true, "description": "Название категории" },
                { "name": "color", "type": "string", "required": true, "description": "HEX-цвет категории" },
                { "name": "icon", "type": "string", "required": true, "description": "URL иконки категории" }
              ]
            },
            {
              "name": "geom",
              "type": "object",
              "required": true,
              "description": "Геометрия метки (GeoJSON Point)",
              "children": [
                { "name": "type", "type": "string", "required": true, "description": "Тип геометрии", "enum": ["Point"] },
                { "name": "coordinates", "type": "number[]", "required": true, "description": "Координаты [lon, lat]" }
              ]
            },
            {
              "name": "owner",
              "type": "object",
              "required": true,
              "description": "Владелец метки",
              "children": [
                { "name": "id", "type": "integer", "required": true, "description": "ID пользователя" },
                { "name": "username", "type": "string", "required": true, "description": "Имя пользователя" },
                { "name": "avatar", "type": "string", "required": false, "description": "URL аватара" }
              ]
            },
            { "name": "photos", "type": "string[]", "required": true, "description": "URL фотографий" },
            { "name": "startAt", "type": "string", "required": true, "description": "Время начала" },
            { "name": "endAt", "type": "string", "required": true, "description": "Время окончания" }
          ],
          "example": [
            {
              "id": 42,
              "markName": "Концерт в парке",
              "additionalInfo": "Бесплатный вход",
              "category": {
                "id": 1,
                "categoryName": "Мероприятия",
                "color": "#ff5722",
                "icon": "https://realtimemap.ru/store/photos/categories/2026/01/event-icon.png"
              },
              "geom": {
                "type": "Point",
                "coordinates": [37.6176, 55.7558]
              },
              "owner": {
                "id": 5,
                "username": "john_doe"
              },
              "photos": [
                "https://realtimemap.ru/store/photos/marks/2026/04/photo1.jpg"
              ],
              "startAt": "2026-04-25T15:32:19.015453Z",
              "endAt": "2026-10-25T15:32:19.015453Z"
            }
          ]
        },
        {
          "statusCode": 200,
          "description": "Список кластеров (при zoomLevel < 12)",
          "schema": [
            {
              "name": "center",
              "type": "object",
              "required": true,
              "description": "Центр кластера (GeoJSON Point)",
              "children": [
                { "name": "type", "type": "string", "required": true, "description": "Тип геометрии", "enum": ["Point"] },
                { "name": "coordinates", "type": "number[]", "required": true, "description": "Координаты [lon, lat]" }
              ]
            },
            { "name": "count", "type": "integer", "required": true, "description": "Количество меток в кластере" }
          ],
          "example": [
            {
              "center": {
                "type": "Point",
                "coordinates": [37.62, 55.75]
              },
              "count": 15
            }
          ]
        }
      ],
      "errors": ["validation-error"]
    },
    {
      "id": "detail-mark",
      "method": "GET",
      "path": "/api/v2/marks/{markID}",
      "summary": "Детальная информация о метке",
      "description": "Возвращает полную информацию о конкретной метке по её ID.",
      "tags": ["Метки"],
      "parameters": [
        { "name": "markID", "type": "integer", "required": true, "description": "ID метки", "location": "path", "example": "42" }
      ],
      "responses": [
        {
          "statusCode": 200,
          "description": "Детальная информация о метке",
          "schema": [
            { "name": "id", "type": "integer", "required": true, "description": "ID метки" },
            { "name": "markName", "type": "string", "required": true, "description": "Название метки" },
            { "name": "additionalInfo", "type": "string", "required": false, "description": "Дополнительное описание" },
            {
              "name": "category",
              "type": "object",
              "required": false,
              "description": "Категория метки",
              "children": [
                { "name": "id", "type": "integer", "required": true, "description": "ID категории" },
                { "name": "categoryName", "type": "string", "required": true, "description": "Название категории" },
                { "name": "color", "type": "string", "required": true, "description": "HEX-цвет категории" },
                { "name": "icon", "type": "string", "required": true, "description": "URL иконки категории" }
              ]
            },
            {
              "name": "geom",
              "type": "object",
              "required": true,
              "description": "Геометрия метки (GeoJSON Point)",
              "children": [
                { "name": "type", "type": "string", "required": true, "description": "Тип геометрии", "enum": ["Point"] },
                { "name": "coordinates", "type": "number[]", "required": true, "description": "Координаты [lon, lat]" }
              ]
            },
            {
              "name": "owner",
              "type": "object",
              "required": true,
              "description": "Владелец метки",
              "children": [
                { "name": "id", "type": "integer", "required": true, "description": "ID пользователя" },
                { "name": "username", "type": "string", "required": true, "description": "Имя пользователя" },
                { "name": "avatar", "type": "string", "required": false, "description": "URL аватара" }
              ]
            },
            { "name": "photos", "type": "string[]", "required": true, "description": "URL фотографий" },
            { "name": "startAt", "type": "string", "required": true, "description": "Время начала" },
            { "name": "endAt", "type": "string", "required": true, "description": "Время окончания" }
          ],
          "example": {
            "id": 42,
            "markName": "Концерт в парке",
            "additionalInfo": "Бесплатный вход",
            "category": {
              "id": 1,
              "categoryName": "Мероприятия",
              "color": "#ff5722",
              "icon": "https://realtimemap.ru/store/photos/categories/2026/01/event-icon.png"
            },
            "geom": {
              "type": "Point",
              "coordinates": [37.6176, 55.7558]
            },
            "owner": {
              "id": 5,
              "username": "john_doe"
            },
            "photos": [
              "https://realtimemap.ru/store/photos/marks/2026/04/photo1.jpg"
            ],
            "startAt": "2026-04-25T15:32:19.015453Z",
            "endAt": "2026-10-25T15:32:19.015453Z"
          }
        }
      ],
      "errors": ["not-found"]
    },
    {
      "id": "create-data",
      "method": "GET",
      "path": "/api/v2/marks/create-data",
      "summary": "Данные для создания метки",
      "description": "Возвращает актуальные данные, необходимые для создания метки: доступные категории и разрешённые значения длительности.",
      "tags": ["Утилиты"],
      "responses": [
        {
          "statusCode": 200,
          "description": "Доступные категории и длительности",
          "schema": [
            {
              "name": "allowedCategories",
              "type": "object[]",
              "required": true,
              "description": "Список доступных категорий",
              "children": [
                { "name": "id", "type": "integer", "required": true, "description": "ID категории" },
                { "name": "categoryName", "type": "string", "required": true, "description": "Название категории" },
                { "name": "color", "type": "string", "required": true, "description": "HEX-цвет категории" },
                { "name": "icon", "type": "string", "required": true, "description": "URL иконки категории" }
              ]
            }
          ],
          "example": {
            "allowedCategories": [
              {
                "id": 1,
                "categoryName": "Мероприятия",
                "color": "#ff5722",
                "icon": "https://realtimemap.ru/store/photos/categories/2026/01/event-icon.png"
              }
            ]
          }
        }
      ],
      "errors": []
    },
    {
      "id": "create-mark",
      "method": "POST",
      "path": "/api/v2/marks/create",
      "summary": "Создание метки",
      "description": "Создает новую метку на карте. Требуется авторизация. После успешного создания автоматически оповещает сокет о новой метке.",
      "tags": ["Метки"],
      "auth": true,
      "requestBody": {
        "description": "Данные для создания метки",
        "contentType": "form-data",
        "schema": [
          { "name": "markName", "type": "string", "required": true, "description": "Название метки (события)" },
          { "name": "additionalInfo", "type": "string", "required": false, "description": "Дополнительное описание" },
          { "name": "categoryId", "type": "integer", "required": true, "description": "ID категории метки" },
          { "name": "startAt", "type": "string", "required": true, "description": "Время начала события (ISO 8601). По умолчанию — текущее время" },
          { "name": "endAt", "type": "string", "required": false, "description": "Время окончания события (ISO 8601). Если не указано, то высчитывается по формуле: (startAt + 1 час)." },
          { "name": "longitude", "type": "number", "required": true, "description": "Долгота (longitude)" },
          { "name": "latitude", "type": "number", "required": true, "description": "Широта (latitude)" },
          { "name": "photos", "type": "file[]", "required": false, "description": "Фотографии (multipart файлы)" }
        ],
        "example": {
          "markName": "Концерт в парке",
          "additionalInfo": "Бесплатный вход",
          "categoryId": 1,
          "startAt": "2026-04-25T18:00:00Z",
          "endAt": "2026-11-25T18:00:00Z",
          "longitude": 37.6176,
          "latitude": 55.7558,
          "photos": "[файлы]"
        }
      },
      "responses": [
        {
          "statusCode": 201,
          "description": "Метка успешно создана",
          "schema": [
            { "name": "id", "type": "integer", "required": true, "description": "ID созданной метки" },
            { "name": "markName", "type": "string", "required": true, "description": "Название метки" },
            { "name": "additionalInfo", "type": "string", "required": false, "description": "Дополнительное описание" },
            {
              "name": "category",
              "type": "object",
              "required": false,
              "description": "Категория метки",
              "children": [
                { "name": "id", "type": "integer", "required": true, "description": "ID категории" },
                { "name": "categoryName", "type": "string", "required": true, "description": "Название категории" },
                { "name": "color", "type": "string", "required": true, "description": "HEX-цвет категории" },
                { "name": "icon", "type": "string", "required": true, "description": "URL иконки категории" }
              ]
            },
            {
              "name": "geom",
              "type": "object",
              "required": true,
              "description": "Геометрия метки (GeoJSON Point)",
              "children": [
                { "name": "type", "type": "string", "required": true, "description": "Тип геометрии", "enum": ["Point"] },
                { "name": "coordinates", "type": "number[]", "required": true, "description": "Координаты [lon, lat]" }
              ]
            },
            {
              "name": "owner",
              "type": "object",
              "required": true,
              "description": "Владелец метки",
              "children": [
                { "name": "id", "type": "integer", "required": true, "description": "ID пользователя" },
                { "name": "username", "type": "string", "required": true, "description": "Имя пользователя" },
                { "name": "avatar", "type": "string", "required": false, "description": "URL аватара" }
              ]
            },
            { "name": "photos", "type": "string[]", "required": true, "description": "Массив URL загруженных фотографий" },
            { "name": "startAt", "type": "string", "required": true, "description": "Время начала" },
            { "name": "endAt", "type": "string", "required": true, "description": "Время окончания" }
          ],
          "example": {
            "id": 42,
            "markName": "Концерт в парке",
            "additionalInfo": "Бесплатный вход",
            "category": {
              "id": 1,
              "categoryName": "Мероприятия",
              "color": "#ff5722",
              "icon": "https://realtimemap.ru/store/photos/categories/2026/01/event-icon.png"
            },
            "geom": {
              "type": "Point",
              "coordinates": [37.6176, 55.7558]
            },
            "owner": {
              "id": 5,
              "username": "john_doe"
            },
            "photos": [
              "https://realtimemap.ru/store/photos/marks/2026/04/photo1.jpg",
              "https://realtimemap.ru/store/photos/marks/2026/04/photo2.jpg"
            ],
            "startAt": "2026-04-25T15:32:19.015453Z",
            "endAt": "2026-10-25T15:32:19.015453Z"
          }
        }
      ],
      "errors": ["validation-error"]
    },
    {
      "id": "update-mark",
      "method": "PATCH",
      "path": "/api/v2/marks/{markID}",
      "summary": "Обновление метки",
      "description": "Обновляет поля существующей метки. Все поля необязательные — отправляются только те, которые нужно изменить. Можно добавить новые фото и удалить существующие. Требуется авторизация, обновлять может только владелец.",
      "tags": ["Метки"],
      "auth": true,
      "parameters": [
        { "name": "markID", "type": "integer", "required": true, "description": "ID метки", "location": "path", "example": "42" }
      ],
      "requestBody": {
        "description": "Поля для обновления (все необязательные)",
        "contentType": "form-data",
        "schema": [
          { "name": "markName", "type": "string", "required": false, "description": "Новое название метки" },
          { "name": "additionalInfo", "type": "string", "required": false, "description": "Новое описание" },
          { "name": "categoryId", "type": "integer", "required": false, "description": "Новый ID категории" },
          { "name": "duration", "type": "integer", "required": false, "description": "Новая длительность в часах" },
          { "name": "photos", "type": "file[]", "required": false, "description": "Новые фотографии для добавления" },
          { "name": "photosToDelete", "type": "string[]", "required": false, "description": "URL фотографий для удаления" }
        ],
        "example": {
          "markName": "Обновлённое название",
          "categoryId": 2,
          "photosToDelete": ["https://realtimemap.ru/store/photos/marks/2026/04/old-photo.jpg"]
        }
      },
      "responses": [
        {
          "statusCode": 200,
          "description": "Метка обновлена",
          "schema": [
            { "name": "id", "type": "integer", "required": true, "description": "ID метки" },
            { "name": "markName", "type": "string", "required": true, "description": "Название метки" },
            { "name": "additionalInfo", "type": "string", "required": false, "description": "Описание" },
            {
              "name": "category",
              "type": "object",
              "required": false,
              "description": "Категория метки",
              "children": [
                { "name": "id", "type": "integer", "required": true, "description": "ID категории" },
                { "name": "categoryName", "type": "string", "required": true, "description": "Название категории" },
                { "name": "color", "type": "string", "required": true, "description": "HEX-цвет категории" },
                { "name": "icon", "type": "string", "required": true, "description": "URL иконки категории" }
              ]
            },
            {
              "name": "geom",
              "type": "object",
              "required": true,
              "description": "Геометрия метки (GeoJSON Point)",
              "children": [
                { "name": "type", "type": "string", "required": true, "description": "Тип геометрии", "enum": ["Point"] },
                { "name": "coordinates", "type": "number[]", "required": true, "description": "Координаты [lon, lat]" }
              ]
            },
            {
              "name": "owner",
              "type": "object",
              "required": true,
              "description": "Владелец метки",
              "children": [
                { "name": "id", "type": "integer", "required": true, "description": "ID пользователя" },
                { "name": "username", "type": "string", "required": true, "description": "Имя пользователя" },
                { "name": "avatar", "type": "string", "required": false, "description": "URL аватара" }
              ]
            },
            { "name": "photos", "type": "string[]", "required": true, "description": "Актуальные URL фотографий" }
          ],
          "example": {
            "id": 42,
            "markName": "Обновлённое название",
            "additionalInfo": "Бесплатный вход",
            "category": {
              "id": 2,
              "categoryName": "Спорт",
              "color": "#4caf50",
              "icon": "https://realtimemap.ru/store/photos/categories/2026/01/sport-icon.png"
            },
            "geom": {
              "type": "Point",
              "coordinates": [37.6176, 55.7558]
            },
            "owner": {
              "id": 5,
              "username": "john_doe"
            },
            "photos": [
              "https://realtimemap.ru/store/photos/marks/2026/04/photo2.jpg"
            ]
          }
        }
      ],
      "errors": ["validation-error", "not-found", "unauthorized"]
    },
    {
      "id": "delete-mark",
      "method": "DELETE",
      "path": "/api/v2/marks/{markID}",
      "summary": "Удаление метки",
      "description": "Удаляет метку по ID. Требуется авторизация, удалять может только владелец метки.",
      "tags": ["Метки"],
      "auth": true,
      "parameters": [
        { "name": "markID", "type": "integer", "required": true, "description": "ID метки", "location": "path", "example": "42" }
      ],
      "responses": [
        {
          "statusCode": 204,
          "description": "Метка успешно удалена"
        }
      ],
      "errors": ["not-found", "unauthorized"]
    },
    {
      "id": "admin-get-all-marks",
      "method": "GET",
      "path": "/api/v2/admin/mark/",
      "summary": "Все метки (админ)",
      "description": "Возвращает все метки с пагинацией. Доступно только администраторам.",
      "tags": ["Админ"],
      "auth": true,
      "pagination": "page",
      "parameters": [
        { "name": "page", "type": "integer", "required": false, "description": "Номер страницы (по умолчанию 1)", "location": "query", "example": "1" },
        { "name": "pageSize", "type": "integer", "required": false, "description": "Размер страницы", "location": "query", "example": "10" }
      ],
      "responses": [
        {
          "statusCode": 200,
          "description": "Список всех меток с пагинацией",
          "example": {
            "items": [
              {
                "id": 42,
                "markName": "Концерт в парке",
                "additionalInfo": "Бесплатный вход",
                "category": {
                  "id": 1,
                  "categoryName": "Мероприятия",
                  "color": "#ff5722",
                  "icon": "https://realtimemap.ru/store/photos/categories/2026/01/event-icon.png"
                },
                "geom": {
                  "type": "Point",
                  "coordinates": [37.6176, 55.7558]
                },
                "owner": {
                  "id": 5,
                  "username": "john_doe"
                },
                "photos": []
              }
            ],
            "page": 1,
            "pageSize": 10,
            "totalPages": 5,
            "total": 48,
            "hasNext": true,
            "hasPrev": false
          }
        }
      ],
      "errors": ["unauthorized"]
    },
    {
      "id": "create-category",
      "method": "POST",
      "path": "/api/v2/category",
      "summary": "Создание категории",
      "description": "Создает новую категорию меток. Доступно только администраторам. Иконка — изображение до 5 МБ (jpeg, png, webp, svg).",
      "tags": ["Категории"],
      "auth": true,
      "requestBody": {
        "description": "Данные категории",
        "contentType": "form-data",
        "schema": [
          { "name": "category_name", "type": "string", "required": true, "description": "Название категории (макс. 64 символа)" },
          { "name": "color", "type": "string", "required": true, "description": "HEX-цвет категории (макс. 7 символов, например #ff5722)" },
          { "name": "icon", "type": "file", "required": true, "description": "Иконка категории (jpeg, png, webp, svg; макс. 5 МБ)" }
        ],
        "example": {
          "category_name": "Мероприятия",
          "color": "#ff5722",
          "icon": "[файл изображения]"
        }
      },
      "responses": [
        {
          "statusCode": 201,
          "description": "Категория создана",
          "schema": [
            { "name": "id", "type": "integer", "required": true, "description": "ID категории" },
            { "name": "categoryName", "type": "string", "required": true, "description": "Название" },
            { "name": "color", "type": "string", "required": true, "description": "HEX-цвет" },
            { "name": "icon", "type": "string", "required": true, "description": "URL иконки" }
          ],
          "example": {
            "id": 3,
            "categoryName": "Мероприятия",
            "color": "#ff5722",
            "icon": "https://realtimemap.ru/store/photos/categories/2026/04/abc123.png"
          }
        }
      ],
      "errors": ["validation-error", "unauthorized"]
    }
  ]
}
